{
    "page": 1,
    "per_page": 15,
    "photos": [
        {
            "id": 573302,
            "width": 3473,
            "height": 5209,
            "url": "https://www.pexels.com/photo/woman-carrying-flowers-while-standing-at-woods-573302/",
            "photographer": "Matheus Bertelli",
            "photographer_url": "https://www.pexels.com/@bertellifotografia",
            "photographer_id": 177895,
            "avg_color": "#826C5E",
            "src": {
                "original": "https://images.pexels.com/photos/573302/pexels-photo-573302.jpeg",
                "large2x": "https://images.pexels.com/photos/573302/pexels-photo-573302.jpeg?auto=compress&cs=tinysrgb&dpr=2&h=650&w=940",
                "large": "https://images.pexels.com/photos/573302/pexels-photo-573302.jpeg?auto=compress&cs=tinysrgb&h=650&w=940",
                "medium": "https://images.pexels.com/photos/573302/pexels-photo-573302.jpeg?auto=compress&cs=tinysrgb&h=350",
                "small": "https://images.pexels.com/photos/573302/pexels-photo-573302.jpeg?auto=compress&cs=tinysrgb&h=130",
                "portrait": "https://images.pexels.com/photos/573302/pexels-photo-573302.jpeg?auto=compress&cs=tinysrgb&fit=crop&h=1200&w=800",
                "landscape": "https://images.pexels.com/photos/573302/pexels-photo-573302.jpeg?auto=compress&cs=tinysrgb&fit=crop&h=627&w=1200",
                "tiny": "https://images.pexels.com/photos/573302/pexels-photo-573302.jpeg?auto=compress&cs=tinysrgb&dpr=1&fit=crop&h=200&w=280"
            },
            "liked": false,
            "alt": "Woman Carrying Flowers While Standing at Woods"
        },
        {
            "id": 3225517,
            "width": 4664,
            "height": 5830,
            "url": "https://www.pexels.com/photo/photo-of-stream-during-daytime-3225517/",
            "photographer": "Michael Block",
            "photographer_url": "https://www.pexels.com/@michael-block-1691617",
            "photographer_id": 1691617,
            "avg_color": "#6D7B7C",
            "src": {
                "original": "https://images.pexels.com/photos/3225517/pexels-photo-3225517.jpeg",
                "large2x": "https://images.pexels.com/photos/3225517/pexels-photo-3225517.jpeg?auto=compress&cs=tinysrgb&dpr=2&h=650&w=940",
                "large": "https://images.pexels.com/photos/3225517/pexels-photo-3225517.jpeg?auto=compress&cs=tinysrgb&h=650&w=940",
                "medium": "https://images.pexels.com/photos/3225517/pexels-photo-3225517.jpeg?auto=compress&cs=tinysrgb&h=350",
                "small": "https://images.pexels.com/photos/3225517/pexels-photo-3225517.jpeg?auto=compress&cs=tinysrgb&h=130",
                "portrait": "https://images.pexels.com/photos/3225517/pexels-photo-3225517.jpeg?auto=compress&cs=tinysrgb&fit=crop&h=1200&w=800",
                "landscape": "https://images.pexels.com/photos/3225517/pexels-photo-3225517.jpeg?auto=compress&cs=tinysrgb&fit=crop&h=627&w=1200",
                "tiny": "https://images.pexels.com/photos/3225517/pexels-photo-3225517.jpeg?auto=compress&cs=tinysrgb&dpr=1&fit=crop&h=200&w=280"
            },
            "liked": false,
            "alt": "Photo Of Stream During Daytime"
        },
        {
            "id": 1547813,
            "width": 3795,
            "height": 5693,
            "url": "https://www.pexels.com/photo/red-trees-1547813/",
            "photographer": "Artem Saranin",
            "photographer_url": "https://www.pexels.com/@arts",
            "photographer_id": 359504,
            "avg_color": "#4B3536",
            "src": {
                "original": "https://images.pexels.com/photos/1547813/pexels-photo-1547813.jpeg",
                "large2x": "https://images.pexels.com/photos/1547813/pexels-photo-1547813.jpeg?auto=compress&cs=tinysrgb&dpr=2&h=650&w=940",
                "large": "https://images.pexels.com/photos/1547813/pexels-photo-1547813.jpeg?auto=compress&cs=tinysrgb&h=650&w=940",
                "medium": "https://images.pexels.com/photos/1547813/pexels-photo-1547813.jpeg?auto=compress&cs=tinysrgb&h=350",
                "small": "https://images.pexels.com/photos/1547813/pexels-photo-1547813.jpeg?auto=compress&cs=tinysrgb&h=130",
                "portrait": "https://images.pexels.com/photos/1547813/pexels-photo-1547813.jpeg?auto=compress&cs=tinysrgb&fit=crop&h=1200&w=800",
                "landscape": "https://images.pexels.com/photos/1547813/pexels-photo-1547813.jpeg?auto=compress&cs=tinysrgb&fit=crop&h=627&w=1200",
                "tiny": "https://images.pexels.com/photos/1547813/pexels-photo-1547813.jpeg?auto=compress&cs=tinysrgb&dpr=1&fit=crop&h=200&w=280"
            },
            "liked": false,
            "alt": "Red Trees"
        },
        {
            "id": 1366909,
            "width": 2000,
            "height": 3000,
            "url": "https://www.pexels.com/photo/low-angle-shot-of-rock-formation-1366909/",
            "photographer": "eberhard grossgasteiger",
            "photographer_url": "https://www.pexels.com/@eberhardgross",
            "photographer_id": 121938,
            "avg_color": "#897C75",
            "src": {
                "original": "https://images.pexels.com/photos/1366909/pexels-photo-1366909.jpeg",
                "large2x": "https://images.pexels.com/photos/1366909/pexels-photo-1366909.jpeg?auto=compress&cs=tinysrgb&dpr=2&h=650&w=940",
                "large": "https://images.pexels.com/photos/1366909/pexels-photo-1366909.jpeg?auto=compress&cs=tinysrgb&h=650&w=940",
                "medium": "https://images.pexels.com/photos/1366909/pexels-photo-1366909.jpeg?auto=compress&cs=tinysrgb&h=350",
                "small": "https://images.pexels.com/photos/1366909/pexels-photo-1366909.jpeg?auto=compress&cs=tinysrgb&h=130",
                "portrait": "https://images.pexels.com/photos/1366909/pexels-photo-1366909.jpeg?auto=compress&cs=tinysrgb&fit=crop&h=1200&w=800",
                "landscape": "https://images.pexels.com/photos/1366909/pexels-photo-1366909.jpeg?auto=compress&cs=tinysrgb&fit=crop&h=627&w=1200",
                "tiny": "https://images.pexels.com/photos/1366909/pexels-photo-1366909.jpeg?auto=compress&cs=tinysrgb&dpr=1&fit=crop&h=200&w=280"
            },
            "liked": false,
            "alt": "Low Angle Shot Of Rock Formation"
        },
        {
            "id": 1820563,
            "width": 3744,
            "height": 4680,
            "url": "https://www.pexels.com/photo/red-and-black-abstract-painting-1820563/",
            "photographer": "Alex Montes",
            "photographer_url": "https://www.pexels.com/@alex-montes-892479",
            "photographer_id": 892479,
            "avg_color": "#353436",
            "src": {
                "original": "https://images.pexels.com/photos/1820563/pexels-photo-1820563.jpeg",
                "large2x": "https://images.pexels.com/photos/1820563/pexels-photo-1820563.jpeg?auto=compress&cs=tinysrgb&dpr=2&h=650&w=940",
                "large": "https://images.pexels.com/photos/1820563/pexels-photo-1820563.jpeg?auto=compress&cs=tinysrgb&h=650&w=940",
                "medium": "https://images.pexels.com/photos/1820563/pexels-photo-1820563.jpeg?auto=compress&cs=tinysrgb&h=350",
                "small": "https://images.pexels.com/photos/1820563/pexels-photo-1820563.jpeg?auto=compress&cs=tinysrgb&h=130",
                "portrait": "https://images.pexels.com/photos/1820563/pexels-photo-1820563.jpeg?auto=compress&cs=tinysrgb&fit=crop&h=1200&w=800",
                "landscape": "https://images.pexels.com/photos/1820563/pexels-photo-1820563.jpeg?auto=compress&cs=tinysrgb&fit=crop&h=627&w=1200",
                "tiny": "https://images.pexels.com/photos/1820563/pexels-photo-1820563.jpeg?auto=compress&cs=tinysrgb&dpr=1&fit=crop&h=200&w=280"
            },
            "liked": false,
            "alt": "Red and Black Abstract Painting"
        },
        {
            "id": 2086622,
            "width": 3623,
            "height": 5454,
            "url": "https://www.pexels.com/photo/snow-covered-mountain-2086622/",
            "photographer": "eberhard grossgasteiger",
            "photographer_url": "https://www.pexels.com/@eberhardgross",
            "photographer_id": 121938,
            "avg_color": "#C3C3C3",
            "src": {
                "original": "https://images.pexels.com/photos/2086622/pexels-photo-2086622.jpeg",
                "large2x": "https://images.pexels.com/photos/2086622/pexels-photo-2086622.jpeg?auto=compress&cs=tinysrgb&dpr=2&h=650&w=940",
                "large": "https://images.pexels.com/photos/2086622/pexels-photo-2086622.jpeg?auto=compress&cs=tinysrgb&h=650&w=940",
                "medium": "https://images.pexels.com/photos/2086622/pexels-photo-2086622.jpeg?auto=compress&cs=tinysrgb&h=350",
                "small": "https://images.pexels.com/photos/2086622/pexels-photo-2086622.jpeg?auto=compress&cs=tinysrgb&h=130",
                "portrait": "https://images.pexels.com/photos/2086622/pexels-photo-2086622.jpeg?auto=compress&cs=tinysrgb&fit=crop&h=1200&w=800",
                "landscape": "https://images.pexels.com/photos/2086622/pexels-photo-2086622.jpeg?auto=compress&cs=tinysrgb&fit=crop&h=627&w=1200",
                "tiny": "https://images.pexels.com/photos/2086622/pexels-photo-2086622.jpeg?auto=compress&cs=tinysrgb&dpr=1&fit=crop&h=200&w=280"
            },
            "liked": false,
            "alt": "Snow Covered Mountain"
        },
        {
            "id": 1028225,
            "width": 3456,
            "height": 5184,
            "url": "https://www.pexels.com/photo/brown-wooden-house-on-edge-of-cliff-1028225/",
            "photographer": "Martin  Péchy",
            "photographer_url": "https://www.pexels.com/@martinpechy",
            "photographer_id": 87367,
            "avg_color": "#8A8885",
            "src": {
                "original": "https://images.pexels.com/photos/1028225/pexels-photo-1028225.jpeg",
                "large2x": "https://images.pexels.com/photos/1028225/pexels-photo-1028225.jpeg?auto=compress&cs=tinysrgb&dpr=2&h=650&w=940",
                "large": "https://images.pexels.com/photos/1028225/pexels-photo-1028225.jpeg?auto=compress&cs=tinysrgb&h=650&w=940",
                "medium": "https://images.pexels.com/photos/1028225/pexels-photo-1028225.jpeg?auto=compress&cs=tinysrgb&h=350",
                "small": "https://images.pexels.com/photos/1028225/pexels-photo-1028225.jpeg?auto=compress&cs=tinysrgb&h=130",
                "portrait": "https://images.pexels.com/photos/1028225/pexels-photo-1028225.jpeg?auto=compress&cs=tinysrgb&fit=crop&h=1200&w=800",
                "landscape": "https://images.pexels.com/photos/1028225/pexels-photo-1028225.jpeg?auto=compress&cs=tinysrgb&fit=crop&h=627&w=1200",
                "tiny": "https://images.pexels.com/photos/1028225/pexels-photo-1028225.jpeg?auto=compress&cs=tinysrgb&dpr=1&fit=crop&h=200&w=280"
            },
            "liked": false,
            "alt": "Brown Wooden House on Edge of Cliff"
        },
        {
            "id": 1770809,
            "width": 2832,
            "height": 4240,
            "url": "https://www.pexels.com/photo/green-grass-near-trees-1770809/",
            "photographer": "Luis Dalvan",
            "photographer_url": "https://www.pexels.com/@luisdalvan",
            "photographer_id": 811128,
            "avg_color": "#325042",
            "src": {
                "original": "https://images.pexels.com/photos/1770809/pexels-photo-1770809.jpeg",
                "large2x": "https://images.pexels.com/photos/1770809/pexels-photo-1770809.jpeg?auto=compress&cs=tinysrgb&dpr=2&h=650&w=940",
                "large": "https://images.pexels.com/photos/1770809/pexels-photo-1770809.jpeg?auto=compress&cs=tinysrgb&h=650&w=940",
                "medium": "https://images.pexels.com/photos/1770809/pexels-photo-1770809.jpeg?auto=compress&cs=tinysrgb&h=350",
                "small": "https://images.pexels.com/photos/1770809/pexels-photo-1770809.jpeg?auto=compress&cs=tinysrgb&h=130",
                "portrait": "https://images.pexels.com/photos/1770809/pexels-photo-1770809.jpeg?auto=compress&cs=tinysrgb&fit=crop&h=1200&w=800",
                "landscape": "https://images.pexels.com/photos/1770809/pexels-photo-1770809.jpeg?auto=compress&cs=tinysrgb&fit=crop&h=627&w=1200",
                "tiny": "https://images.pexels.com/photos/1770809/pexels-photo-1770809.jpeg?auto=compress&cs=tinysrgb&dpr=1&fit=crop&h=200&w=280"
            },
            "liked": false,
            "alt": "Green Grass Near Trees"
        },
        {
            "id": 1381679,
            "width": 4000,
            "height": 6000,
            "url": "https://www.pexels.com/photo/close-up-photo-of-purple-lilac-flowers-1381679/",
            "photographer": "Irina Iriser",
            "photographer_url": "https://www.pexels.com/@iriser",
            "photographer_id": 135125,
            "avg_color": "#3D2F4E",
            "src": {
                "original": "https://images.pexels.com/photos/1381679/pexels-photo-1381679.jpeg",
                "large2x": "https://images.pexels.com/photos/1381679/pexels-photo-1381679.jpeg?auto=compress&cs=tinysrgb&dpr=2&h=650&w=940",
                "large": "https://images.pexels.com/photos/1381679/pexels-photo-1381679.jpeg?auto=compress&cs=tinysrgb&h=650&w=940",
                "medium": "https://images.pexels.com/photos/1381679/pexels-photo-1381679.jpeg?auto=compress&cs=tinysrgb&h=350",
                "small": "https://images.pexels.com/photos/1381679/pexels-photo-1381679.jpeg?auto=compress&cs=tinysrgb&h=130",
                "portrait": "https://images.pexels.com/photos/1381679/pexels-photo-1381679.jpeg?auto=compress&cs=tinysrgb&fit=crop&h=1200&w=800",
                "landscape": "https://images.pexels.com/photos/1381679/pexels-photo-1381679.jpeg?auto=compress&cs=tinysrgb&fit=crop&h=627&w=1200",
                "tiny": "https://images.pexels.com/photos/1381679/pexels-photo-1381679.jpeg?auto=compress&cs=tinysrgb&dpr=1&fit=crop&h=200&w=280"
            },
            "liked": false,
            "alt": "Close-up Photo of Purple Lilac Flowers"
        },
        {
            "id": 298821,
            "width": 3840,
            "height": 5760,
            "url": "https://www.pexels.com/photo/nature-dark-leaves-green-298821/",
            "photographer": "Markus Spiske",
            "photographer_url": "https://www.pexels.com/@markusspiske",
            "photographer_id": 19851,
            "avg_color": "#393A35",
            "src": {
                "original": "https://images.pexels.com/photos/298821/pexels-photo-298821.jpeg",
                "large2x": "https://images.pexels.com/photos/298821/pexels-photo-298821.jpeg?auto=compress&cs=tinysrgb&dpr=2&h=650&w=940",
                "large": "https://images.pexels.com/photos/298821/pexels-photo-298821.jpeg?auto=compress&cs=tinysrgb&h=650&w=940",
                "medium": "https://images.pexels.com/photos/298821/pexels-photo-298821.jpeg?auto=compress&cs=tinysrgb&h=350",
                "small": "https://images.pexels.com/photos/298821/pexels-photo-298821.jpeg?auto=compress&cs=tinysrgb&h=130",
                "portrait": "https://images.pexels.com/photos/298821/pexels-photo-298821.jpeg?auto=compress&cs=tinysrgb&fit=crop&h=1200&w=800",
                "landscape": "https://images.pexels.com/photos/298821/pexels-photo-298821.jpeg?auto=compress&cs=tinysrgb&fit=crop&h=627&w=1200",
                "tiny": "https://images.pexels.com/photos/298821/pexels-photo-298821.jpeg?auto=compress&cs=tinysrgb&dpr=1&fit=crop&h=200&w=280"
            },
            "liked": false,
            "alt": "Free stock photo of 4k wallpaper, close-up, colors"
        },
        {
            "id": 1624504,
            "width": 3648,
            "height": 5472,
            "url": "https://www.pexels.com/photo/mountain-under-starry-sky-1624504/",
            "photographer": "eberhard grossgasteiger",
            "photographer_url": "https://www.pexels.com/@eberhardgross",
            "photographer_id": 121938,
            "avg_color": "#59616A",
            "src": {
                "original": "https://images.pexels.com/photos/1624504/pexels-photo-1624504.jpeg",
                "large2x": "https://images.pexels.com/photos/1624504/pexels-photo-1624504.jpeg?auto=compress&cs=tinysrgb&dpr=2&h=650&w=940",
                "large": "https://images.pexels.com/photos/1624504/pexels-photo-1624504.jpeg?auto=compress&cs=tinysrgb&h=650&w=940",
                "medium": "https://images.pexels.com/photos/1624504/pexels-photo-1624504.jpeg?auto=compress&cs=tinysrgb&h=350",
                "small": "https://images.pexels.com/photos/1624504/pexels-photo-1624504.jpeg?auto=compress&cs=tinysrgb&h=130",
                "portrait": "https://images.pexels.com/photos/1624504/pexels-photo-1624504.jpeg?auto=compress&cs=tinysrgb&fit=crop&h=1200&w=800",
                "landscape": "https://images.pexels.com/photos/1624504/pexels-photo-1624504.jpeg?auto=compress&cs=tinysrgb&fit=crop&h=627&w=1200",
                "tiny": "https://images.pexels.com/photos/1624504/pexels-photo-1624504.jpeg?auto=compress&cs=tinysrgb&dpr=1&fit=crop&h=200&w=280"
            },
            "liked": false,
            "alt": "Mountain Under Starry Sky"
        },
        {
            "id": 1761279,
            "width": 3685,
            "height": 5527,
            "url": "https://www.pexels.com/photo/first-perspective-photography-of-hanging-bridge-1761279/",
            "photographer": "Jacob Colvin",
            "photographer_url": "https://www.pexels.com/@jake-pnw",
            "photographer_id": 825671,
            "avg_color": "#353633",
            "src": {
                "original": "https://images.pexels.com/photos/1761279/pexels-photo-1761279.jpeg",
                "large2x": "https://images.pexels.com/photos/1761279/pexels-photo-1761279.jpeg?auto=compress&cs=tinysrgb&dpr=2&h=650&w=940",
                "large": "https://images.pexels.com/photos/1761279/pexels-photo-1761279.jpeg?auto=compress&cs=tinysrgb&h=650&w=940",
                "medium": "https://images.pexels.com/photos/1761279/pexels-photo-1761279.jpeg?auto=compress&cs=tinysrgb&h=350",
                "small": "https://images.pexels.com/photos/1761279/pexels-photo-1761279.jpeg?auto=compress&cs=tinysrgb&h=130",
                "portrait": "https://images.pexels.com/photos/1761279/pexels-photo-1761279.jpeg?auto=compress&cs=tinysrgb&fit=crop&h=1200&w=800",
                "landscape": "https://images.pexels.com/photos/1761279/pexels-photo-1761279.jpeg?auto=compress&cs=tinysrgb&fit=crop&h=627&w=1200",
                "tiny": "https://images.pexels.com/photos/1761279/pexels-photo-1761279.jpeg?auto=compress&cs=tinysrgb&dpr=1&fit=crop&h=200&w=280"
            },
            "liked": false,
            "alt": "First Perspective Photography of Hanging Bridge"
        },
        {
            "id": 1699020,
            "width": 3333,
            "height": 5000,
            "url": "https://www.pexels.com/photo/brown-castle-under-a-starry-sky-1699020/",
            "photographer": "eberhard grossgasteiger",
            "photographer_url": "https://www.pexels.com/@eberhardgross",
            "photographer_id": 121938,
            "avg_color": "#191818",
            "src": {
                "original": "https://images.pexels.com/photos/1699020/pexels-photo-1699020.jpeg",
                "large2x": "https://images.pexels.com/photos/1699020/pexels-photo-1699020.jpeg?auto=compress&cs=tinysrgb&dpr=2&h=650&w=940",
                "large": "https://images.pexels.com/photos/1699020/pexels-photo-1699020.jpeg?auto=compress&cs=tinysrgb&h=650&w=940",
                "medium": "https://images.pexels.com/photos/1699020/pexels-photo-1699020.jpeg?auto=compress&cs=tinysrgb&h=350",
                "small": "https://images.pexels.com/photos/1699020/pexels-photo-1699020.jpeg?auto=compress&cs=tinysrgb&h=130",
                "portrait": "https://images.pexels.com/photos/1699020/pexels-photo-1699020.jpeg?auto=compress&cs=tinysrgb&fit=crop&h=1200&w=800",
                "landscape": "https://images.pexels.com/photos/1699020/pexels-photo-1699020.jpeg?auto=compress&cs=tinysrgb&fit=crop&h=627&w=1200",
                "tiny": "https://images.pexels.com/photos/1699020/pexels-photo-1699020.jpeg?auto=compress&cs=tinysrgb&dpr=1&fit=crop&h=200&w=280"
            },
            "liked": false,
            "alt": "Brown Castle Under a Starry Sky"
        },
        {
            "id": 1161375,
            "width": 3456,
            "height": 5184,
            "url": "https://www.pexels.com/photo/highway-in-the-middle-of-forest-covered-in-fog-1161375/",
            "photographer": "Nathan Cowley",
            "photographer_url": "https://www.pexels.com/@mastercowley",
            "photographer_id": 205246,
            "avg_color": "#C1BEC3",
            "src": {
                "original": "https://images.pexels.com/photos/1161375/pexels-photo-1161375.jpeg",
                "large2x": "https://images.pexels.com/photos/1161375/pexels-photo-1161375.jpeg?auto=compress&cs=tinysrgb&dpr=2&h=650&w=940",
                "large": "https://images.pexels.com/photos/1161375/pexels-photo-1161375.jpeg?auto=compress&cs=tinysrgb&h=650&w=940",
                "medium": "https://images.pexels.com/photos/1161375/pexels-photo-1161375.jpeg?auto=compress&cs=tinysrgb&h=350",
                "small": "https://images.pexels.com/photos/1161375/pexels-photo-1161375.jpeg?auto=compress&cs=tinysrgb&h=130",
                "portrait": "https://images.pexels.com/photos/1161375/pexels-photo-1161375.jpeg?auto=compress&cs=tinysrgb&fit=crop&h=1200&w=800",
                "landscape": "https://images.pexels.com/photos/1161375/pexels-photo-1161375.jpeg?auto=compress&cs=tinysrgb&fit=crop&h=627&w=1200",
                "tiny": "https://images.pexels.com/photos/1161375/pexels-photo-1161375.jpeg?auto=compress&cs=tinysrgb&dpr=1&fit=crop&h=200&w=280"
            },
            "liked": false,
            "alt": "Highway in the Middle of Forest Covered in Fog"
        },
        {
            "id": 2187626,
            "width": 2623,
            "height": 3279,
            "url": "https://www.pexels.com/photo/mountain-2187626/",
            "photographer": "Kyle Roxas",
            "photographer_url": "https://www.pexels.com/@kyleroxas",
            "photographer_id": 1123644,
            "avg_color": "#6F7870",
            "src": {
                "original": "https://images.pexels.com/photos/2187626/pexels-photo-2187626.jpeg",
                "large2x": "https://images.pexels.com/photos/2187626/pexels-photo-2187626.jpeg?auto=compress&cs=tinysrgb&dpr=2&h=650&w=940",
                "large": "https://images.pexels.com/photos/2187626/pexels-photo-2187626.jpeg?auto=compress&cs=tinysrgb&h=650&w=940",
                "medium": "https://images.pexels.com/photos/2187626/pexels-photo-2187626.jpeg?auto=compress&cs=tinysrgb&h=350",
                "small": "https://images.pexels.com/photos/2187626/pexels-photo-2187626.jpeg?auto=compress&cs=tinysrgb&h=130",
                "portrait": "https://images.pexels.com/photos/2187626/pexels-photo-2187626.jpeg?auto=compress&cs=tinysrgb&fit=crop&h=1200&w=800",
                "landscape": "https://images.pexels.com/photos/2187626/pexels-photo-2187626.jpeg?auto=compress&cs=tinysrgb&fit=crop&h=627&w=1200",
                "tiny": "https://images.pexels.com/photos/2187626/pexels-photo-2187626.jpeg?auto=compress&cs=tinysrgb&dpr=1&fit=crop&h=200&w=280"
            },
            "liked": false,
            "alt": "Mountain"
        }
    ],
    "total_results": 8000,
    "next_page": "https://api.pexels.com/v1/search/?orientation=portrait&page=2&per_page=15&query=nature"
}
